{
  "type": "service_account",
  "project_id": "ke8s-242016",
  "private_key_id": "864dcad28d316a53aff4b4d4797efc6a64615e3d",
  "private_key": "-----BEGIN PRIVATE KEY-----\nMIIEvgIBADANBgkqhkiG9w0BAQEFAASCBKgwggSkAgEAAoIBAQCekhYk5Ctn1jhr\n95LYQT6M+/5oG+M3rwIc1OagdtbKfmr+sgQ75y++yErKyza23eZjh+rOslP2sni4\npB2Ai9a2Lcil7TO+Pdh8/VtP0NAtiSr/0h2gLdwC41VtKoRH/gtHSV8n6pqm7Vfu\nB+j+ncA0Tmq6jD5ZRCjf36I/R4gYkCzYC7Uu0CmKBECwPDFmJ8t1CAA7/qlk2Uc4\nQZCUdWSRxOfdip6Hqu9BbeAZwPI20Z0LiPmNqIXeUHVhaOVtDG463P4n4VRrX/rd\n9i9kpeM+lEIsZetC8ZE0oGtF8QvY5BHMEbUXzgs4UStiGcKaygOMPFww4nGa44G+\n8wcU1pwRAgMBAAECggEACjpboBi98/5AhWl8P0ncdWhYcIt1jHhTwPUg9+V/O6Ol\nb+g4ZBf1X6KFShW+SCCBmJa1WCYiF4RLfrb9o1z7UtgawrKzs7TcuEzFpwOBA6IY\njYewAYHAi/vxEEMkMfPHWagrfkrTm6pgRMPRDRtMjazBLzP8kYvXI+ZfQLwMbm93\nWK/AsnvT8JoiMhlzwnKcFy2ggvgRPn61PehZbYmmjIrgalS3iT/2yvuj6vJSZrV3\nlGQs+3tRQcltEJbi5Wkff26iL+b7AnEpIb0iuLkQTsIrxnuzW+dh33K+fofg8r6e\n3+zaXK5OPKqj06vEiPsIDT0r6+qAklQd5PhLndHUQQKBgQDdtEDLkGWIL7/hmtCT\nw/I/kwq5PCSnh1/K+X+eMcNszUm1KN1TKFWzrD1cCSxtX8FA9tTMulsOTLEHzqgi\nVcV2MApNHbhgDYGbeiODTgJu6TxPahtcHPpD3VjxFRfnM0o45Rwu4KXrFR+qLcbS\naBZ2h62LIz/v73nNKdY8BWPNiwKBgQC3GaxOcwYM7g2/C5tSTYYPEae8mG2dqh9W\n2rZ01sjIG2hkAFUzE+GJNkcP+MDdPnXRHa540BY9aaLKwyfXqdTqWKWiNNIOWHsI\nAfc5AihuPVthRyr00QQIhLwSPaPhufmtMXC8GAM5oo8Tnr2bzfSaRrZgfaU9EK0h\nuAIDqj/oUwKBgQDX+vMonJoc6w+OFAjf+wLzZicLP4kh36K1lQv7K9WLGA6XOqEq\nkt+ysrfwAkvSnXch95RlgaKVMqc/yNZI5LACLFjMuYhVorLBqWIRV5zNOdB0ORVA\nTkaMeIVeD0ODC5diB+jFzjo04xY+7muDrL09aX3qT0PJVc2dzgUT4dhRcwKBgESo\npNsZ+LfagF8WPB0FovJ9nVd0FQ6dH3lTND3l2I5o8KEnGsu3dcgdCVKs5a1Q4Z8T\nsTvuU5idxwSfX45YSdXCfgGwKuBkP2ZGTm0bKQwFiAGXTT1WL1v+YgO5B336Xeya\n8HonyvXOxjYGPXVyKnm7cGIIW3DlkvZk6KR1L9evAoGBAK06B+KDlCfsbCL7D2ZZ\nTbY8uduu9awyy3p+1z+yMhMh18/4dPe4FzzGqALJHs2c7SGlvyA1UThnyUL17/iN\nH/2zbYPdi+8odsr8x6HC4dVMJaT9D3KzOsgJtr08utQQ3snbpc79TNkFRhY45ap8\nXfmLoQbDJ3fXNGLKmYMs5ZxQ\n-----END PRIVATE KEY-----\n",
  "client_email": "ke8s-242016@appspot.gserviceaccount.com",
  "client_id": "113820185058616650519",
  "auth_uri": "https://accounts.google.com/o/oauth2/auth",
  "token_uri": "https://oauth2.googleapis.com/token",
  "auth_provider_x509_cert_url": "https://www.googleapis.com/oauth2/v1/certs",
  "client_x509_cert_url": "https://www.googleapis.com/robot/v1/metadata/x509/ke8s-242016%40appspot.gserviceaccount.com"
}
